Title: 
 Alignment for SF12 and PHQ4 analysis

 
Data:
  File is /users/bootstrap/documents/temp/DMHM-sf12_phq.dat ;
Variable:
  Names are 
     persnr phq1 phq2 phq3 phq4 sex group_analysis;
  Missing are all (-9999) ; 
  
  usevar = phq1 phq2 phq3 phq4;
  !USEOBSERVATIONS are group_analysis NE 9999;
  classes = c(16);
        knownclass = c(group_analysis = 1 2 4 5 21 22 29 30 32 43 60 
        74 78 85 89 140);
  
  
ANALYSIS: 
        type = mixture;
        estimator = ml;
        !alignment = free;

model:
  %overall% 
  phq1 on phq2 phq3 phq4;
        
output:
		tech1 tech8 align;

plot:
        type = plot2;
