Title: 
 Alignment for SF12 and PHQ4 analysis

 
Data:
  File is /users/bootstrap/documents/temp/DMHM-sf12_phq.dat ;
Variable:
  Names are 
     persnr phq1 phq2 phq3 phq4 sf12_12_down sf12_11_relax sf12_10_energy
     sf12_9_care_s sf12_8_less_m sf12_7_social sf12_6_pain sf12_5_content
     sf12_4_less_p sf12_3_hinder sf12_2_stairs sf12_1_srh sex group_analysis;
  Missing are all (-9999) ; 
  
  usevar = phq1-phq4;
  !USEOBSERVATIONS are group_analysis NE 9999;
  classes = c(17);
        knownclass = c(group_analysis = 1 2 4 5 21 22 29 30 32 43 60 
        74 78 85 89 140 9999);
  
  
ANALYSIS: 
        type = mixture;
        estimator = ml;
        alignment = fixed(29);

model:
        %overall%
        PHQ by phq1-phq4;
        
output:
		tech1 tech8 align;

plot:
        type = plot2;
